\relax 
\@writefile{toc}{\contentsline {chapter}{\numberline {3}AgentJ: The Toolkit}{13}{chapter.3}}
\@writefile{lof}{\addvspace {10\p@ }}
\@writefile{lot}{\addvspace {10\p@ }}
\newlabel{agentj}{{3}{13}{\agentj : The Toolkit\relax }{chapter.3}{}}
\@writefile{toc}{\contentsline {section}{\numberline {3.1}A Root Around the AgentJ Directories}{13}{section.3.1}}
\newlabel{agentj:classes}{{3.1}{13}{A Root Around the AgentJ Directories\relax }{section.3.1}{}}
\@writefile{lof}{\contentsline {figure}{\numberline {3.1}{\ignorespaces The C++ Classes within AgentJ.}}{14}{figure.3.1}}
\newlabel{fig:directories}{{3.1}{14}{The C++ Classes within \agentj }{figure.3.1}{}}
\@writefile{toc}{\contentsline {section}{\numberline {3.2}From the Java Side to the C Side}{14}{section.3.2}}
\@writefile{lof}{\contentsline {figure}{\numberline {3.2}{\ignorespaces An overview of the AgentJ\nobreakspace  {}software components}}{15}{figure.3.2}}
\newlabel{intro:fig:impoverview}{{3.2}{15}{An overview of the \agentj ~software components\relax }{figure.3.2}{}}
\@writefile{toc}{\contentsline {section}{\numberline {3.3}Sending commands to Java Agents}{15}{section.3.3}}
\@writefile{lof}{\contentsline {figure}{\numberline {3.3}{\ignorespaces The interaction between TCL and Java objects through the command() method in AgentJObject. }}{16}{figure.3.3}}
\newlabel{fig:progoverview}{{3.3}{16}{The interaction between TCL and Java objects through the command() method in AgentJObject}{figure.3.3}{}}
\@writefile{lof}{\contentsline {figure}{\numberline {3.4}{\ignorespaces The interface to a Java program for an agent employs a similar interface to that of NS2 when communicating between the TCL scripts and the C++ classes. }}{17}{figure.3.4}}
\newlabel{fig:useroverview}{{3.4}{17}{The interface to a Java program for an agent employs a similar interface to that of NS2 when communicating between the TCL scripts and the C++ classes}{figure.3.4}{}}
\@setckpt{chapters/agentj}{
\setcounter{page}{19}
\setcounter{equation}{0}
\setcounter{enumi}{1}
\setcounter{enumii}{0}
\setcounter{enumiii}{0}
\setcounter{enumiv}{0}
\setcounter{footnote}{0}
\setcounter{mpfootnote}{0}
\setcounter{part}{0}
\setcounter{chapter}{3}
\setcounter{section}{3}
\setcounter{subsection}{0}
\setcounter{subsubsection}{0}
\setcounter{paragraph}{0}
\setcounter{subparagraph}{0}
\setcounter{figure}{4}
\setcounter{table}{0}
\setcounter{Item}{4}
\setcounter{Hfootnote}{5}
\setcounter{bookmark@seq@number}{12}
\setcounter{section@level}{1}
}
