\relax 
\@writefile{toc}{\contentsline {chapter}{\numberline {4}AgentJ Examples}{19}{chapter.4}}
\@writefile{lof}{\addvspace {10\p@ }}
\@writefile{lot}{\addvspace {10\p@ }}
\newlabel{chap:examples}{{4}{19}{AgentJ Examples\relax }{chapter.4}{}}
\@writefile{toc}{\contentsline {section}{\numberline {4.1}TCP Socket Example}{20}{section.4.1}}
\newlabel{sec:tcpdemo}{{4.1}{20}{TCP Socket Example\relax }{section.4.1}{}}
\@writefile{toc}{\contentsline {subsection}{\numberline {4.1.1}TCP Socket Example: The TCL Side}{20}{subsection.4.1.1}}
\citation{log4j}
\@writefile{toc}{\contentsline {subsection}{\numberline {4.1.2}TCP Socket Example: The Java Side}{21}{subsection.4.1.2}}
\newlabel{sec:tcp:javaside}{{4.1.2}{21}{TCP Socket Example: The Java Side\relax }{subsection.4.1.2}{}}
\@writefile{lof}{\contentsline {figure}{\numberline {4.1}{\ignorespaces The Output NAM display for the namdemo.tcl simulation}}{22}{figure.4.1}}
\newlabel{fig:namdemo}{{4.1}{22}{The Output NAM display for the namdemo.tcl simulation\relax }{figure.4.1}{}}
\@writefile{toc}{\contentsline {section}{\numberline {4.2}Animating NAM Demo}{22}{section.4.2}}
\newlabel{sec:namdemo}{{4.2}{22}{Animating NAM Demo\relax }{section.4.2}{}}
\@writefile{toc}{\contentsline {subsection}{\numberline {4.2.1}NAM Demo: The TCL Side}{22}{subsection.4.2.1}}
\newlabel{jni:tclside}{{4.2.1}{22}{NAM Demo: The TCL Side\relax }{subsection.4.2.1}{}}
\citation{p2ps}
\citation{jxta}
\citation{jini2}
\@writefile{toc}{\contentsline {subsection}{\numberline {4.2.2}NAM Demo: The Java Side}{23}{subsection.4.2.2}}
\newlabel{sec:nam:javaside}{{4.2.2}{23}{NAM Demo: The Java Side\relax }{subsection.4.2.2}{}}
\@writefile{toc}{\contentsline {section}{\numberline {4.3}P2PS Demos}{24}{section.4.3}}
\newlabel{sec:p2psdemos}{{4.3}{24}{P2PS Demos\relax }{section.4.3}{}}
\@writefile{toc}{\contentsline {subsection}{\numberline {4.3.1}Simple P2PS Demos}{24}{subsection.4.3.1}}
\@writefile{toc}{\contentsline {subsection}{\numberline {4.3.2}Advanced P2PS Demos}{24}{subsection.4.3.2}}
\@writefile{lof}{\contentsline {figure}{\numberline {4.2}{\ignorespaces The network configuration for the Unicast Three Rendezvous P2PS demo.}}{25}{figure.4.2}}
\newlabel{fig:p2psdemo}{{4.2}{25}{The network configuration for the Unicast Three Rendezvous P2PS demo}{figure.4.2}{}}
\@setckpt{chapters/demos}{
\setcounter{page}{26}
\setcounter{equation}{0}
\setcounter{enumi}{6}
\setcounter{enumii}{0}
\setcounter{enumiii}{0}
\setcounter{enumiv}{0}
\setcounter{footnote}{0}
\setcounter{mpfootnote}{0}
\setcounter{part}{0}
\setcounter{chapter}{4}
\setcounter{section}{3}
\setcounter{subsection}{2}
\setcounter{subsubsection}{0}
\setcounter{paragraph}{0}
\setcounter{subparagraph}{0}
\setcounter{figure}{2}
\setcounter{table}{0}
\setcounter{Item}{12}
\setcounter{Hfootnote}{5}
\setcounter{bookmark@seq@number}{22}
\setcounter{section@level}{2}
}
