\relax 
\@writefile{toc}{\contentsline {chapter}{\numberline {2}Installing the AgentJ\nobreakspace  {}Toolkit}{5}{chapter.2}}
\@writefile{lof}{\addvspace {10\p@ }}
\@writefile{lot}{\addvspace {10\p@ }}
\newlabel{install}{{2}{5}{Installing the \agentj ~Toolkit\relax }{chapter.2}{}}
\@writefile{toc}{\contentsline {section}{\numberline {2.1}Installing the C++ Code}{5}{section.2.1}}
\newlabel{install:agentj}{{2.1}{5}{Installing the C++ Code\relax }{section.2.1}{}}
\@writefile{toc}{\contentsline {section}{\numberline {2.2}Installing the Java Code}{10}{section.2.2}}
\newlabel{sec:installjava}{{2.2}{10}{Installing the Java Code\relax }{section.2.2}{}}
\@writefile{toc}{\contentsline {section}{\numberline {2.3}Additional installation steps for using AgentJ as a routing protocol}{10}{section.2.3}}
\newlabel{sec:additionalinstall}{{2.3}{10}{Additional installation steps for using AgentJ as a routing protocol\relax }{section.2.3}{}}
\@writefile{toc}{\contentsline {section}{\numberline {2.4}Special instructions for 64-bit Linux operating systems}{11}{section.2.4}}
\newlabel{sec:install64bits}{{2.4}{11}{Special instructions for 64-bit Linux operating systems\relax }{section.2.4}{}}
\@setckpt{chapters/install}{
\setcounter{page}{12}
\setcounter{equation}{0}
\setcounter{enumi}{1}
\setcounter{enumii}{0}
\setcounter{enumiii}{0}
\setcounter{enumiv}{0}
\setcounter{footnote}{1}
\setcounter{mpfootnote}{0}
\setcounter{part}{0}
\setcounter{chapter}{2}
\setcounter{section}{4}
\setcounter{subsection}{0}
\setcounter{subsubsection}{0}
\setcounter{paragraph}{0}
\setcounter{subparagraph}{0}
\setcounter{figure}{0}
\setcounter{table}{0}
\setcounter{Item}{4}
\setcounter{Hfootnote}{5}
\setcounter{bookmark@seq@number}{8}
\setcounter{section@level}{1}
}
