\relax 
\citation{ns2}
\@writefile{toc}{\contentsline {chapter}{\numberline {1}Introduction}{1}{chapter.1}}
\@writefile{lof}{\addvspace {10\p@ }}
\@writefile{lot}{\addvspace {10\p@ }}
\newlabel{intro}{{1}{1}{Introduction\relax }{chapter.1}{}}
\citation{Shirky2000}
\citation{jxta}
\citation{p2ps}
\citation{ns2}
\@writefile{toc}{\contentsline {section}{\numberline {1.1}Motivation for AgentJ}{2}{section.1.1}}
\citation{protolib}
\@writefile{lof}{\contentsline {figure}{\numberline {1.1}{\ignorespaces Ns-2 Component Overview}}{3}{figure.1.1}}
\newlabel{intro:fig:nsoverview}{{1.1}{3}{Ns-2 Component Overview\relax }{figure.1.1}{}}
\@writefile{toc}{\contentsline {section}{\numberline {1.2}NS-2, Protolib and AgentJ}{3}{section.1.2}}
\newlabel{sec:nsprotolib}{{1.2}{3}{NS-2, Protolib and AgentJ\relax }{section.1.2}{}}
\citation{jsim}
\citation{peersim}
\@writefile{lof}{\contentsline {figure}{\numberline {1.2}{\ignorespaces An overview of the AgentJ\nobreakspace  {}software stack}}{4}{figure.1.2}}
\newlabel{intro:fig:layers}{{1.2}{4}{An overview of the \agentj ~software stack\relax }{figure.1.2}{}}
\@setckpt{chapters/intro}{
\setcounter{page}{5}
\setcounter{equation}{0}
\setcounter{enumi}{0}
\setcounter{enumii}{0}
\setcounter{enumiii}{0}
\setcounter{enumiv}{0}
\setcounter{footnote}{4}
\setcounter{mpfootnote}{0}
\setcounter{part}{0}
\setcounter{chapter}{1}
\setcounter{section}{2}
\setcounter{subsection}{0}
\setcounter{subsubsection}{0}
\setcounter{paragraph}{0}
\setcounter{subparagraph}{0}
\setcounter{figure}{2}
\setcounter{table}{0}
\setcounter{Item}{0}
\setcounter{Hfootnote}{4}
\setcounter{bookmark@seq@number}{3}
\setcounter{section@level}{1}
}
